{
	"settings" : {
		"Name" : "Wild Lake",
		"Script" : "wild_lake.js",
		"Preview" : "wild_lake.png",
		"Description" : "A lake surrounded by hills.",
		"CircularMap" : true,
		"BaseTerrain" : "whiteness",
		"Keywords": ["new"],
		"BaseHeight" : 0
	}
}
